<svg width="24" height="24" viewBox="0 0 24 24" fill="none" xmlns="http://www.w3.org/2000/svg">
<path d="M3.8699 6.48999L2.0999 8.25999L11.9999 18.16L21.8999 8.25999L20.1299 6.48999L11.9999 14.62L3.8699 6.48999Z" fill="#C4C4C4"/>
</svg>
