<svg width="24" height="24" viewBox="0 0 24 24" fill="none" xmlns="http://www.w3.org/2000/svg">
<g clip-path="url(#clip0)">
<path d="M16 22H6C4.89543 22 4 21.1046 4 20V7H2V5H6V4C6 2.89543 6.89543 2 8 2H14C15.1046 2 16 2.89543 16 4V5H20V7H18V20C18 21.1046 17.1046 22 16 22ZM6 7V20H16V7H6ZM8 4V5H14V4H8ZM14 18H12V9H14V18ZM10 18H8V9H10V18Z" fill="#323232"/>
</g>
<defs>
<clipPath id="clip0">
<rect width="24" height="24" fill="white"/>
</clipPath>
</defs>
</svg>
